…
``` r
hw5
```

    ## # A tibble: 160 x 4
    ##    id    arm      week observation
    ##    <fct> <chr>   <dbl>       <dbl>
    ##  1 01    control     1        0.2 
    ##  2 02    control     1        1.13
    ##  3 03    control     1        1.77
    ##  4 04    control     1        1.04
    ##  5 05    control     1        0.47
    ##  6 06    control     1        2.37
    ##  7 07    control     1        0.03
    ##  8 08    control     1       -0.08
    ##  9 09    control     1        0.08
    ## 10 10    control     1        2.14
    ## # ... with 150 more rows
…
